…
## Example 3

Count the number of missing values for each creature in the starwards data set from dplyr

``` r
CountAllMissingByGroup(dplyr::starwars, name)
#> # A tibble: 87 × 14
#>    name     height  mass hair_color skin_color eye_color birth_year   sex gender
#>    <chr>     <int> <int>      <int>      <int>     <int>      <int> <int>  <int>
#>  1 Ackbar        0     0          0          0         0          0     0      0
#>  2 Adi Gal…      0     0          0          0         0          1     0      0
#>  3 Anakin …      0     0          0          0         0          0     0      0
#>  4 Arvel C…      1     1          0          0         0          1     0      0
#>  5 Ayla Se…      0     0          0          0         0          0     0      0
#>  6 BB8           1     1          0          0         0          1     0      0
#>  7 Bail Pr…      0     1          0          0         0          0     0      0
#>  8 Barriss…      0     0          0          0         0          0     0      0
#>  9 Ben Qua…      0     0          0          0         0          1     0      0
#> 10 Beru Wh…      0     0          0          0         0          0     0      0
#> # ℹ 77 more rows
#> # ℹ 5 more variables: homeworld <int>, species <int>, films <int>,
#> #   vehicles <int>, starships <int>
```

# Example 4

Count the number of missing values for each species in the starwards data set from dplyr and keep the grouping variable

``` r
CountAllMissingByGroup(dplyr::starwars, species, .groups = "keep")
#> # A tibble: 38 × 14
#> # Groups:   species [38]
#>    species    name height  mass hair_color skin_color eye_color birth_year   sex
#>    <chr>     <int>  <int> <int>      <int>      <int>     <int>      <int> <int>
#>  1 Aleena        0      0     0          0          0         0          1     0
#>  2 Besalisk      0      0     0          0          0         0          1     0
#>  3 Cerean        0      0     0          0          0         0          0     0
#>  4 Chagrian      0      0     1          0          0         0          1     0
#>  5 Clawdite      0      0     0          0          0         0          1     0
#>  6 Droid         0      1     2          3          0         0          3     0
#>  7 Dug           0      0     0          0          0         0          1     0
#>  8 Ewok          0      0     0          0          0         0          0     0
#>  9 Geonosian     0      0     0          0          0         0          1     0
#> 10 Gungan        0      0     1          0          0         0          2     0
#> # ℹ 28 more rows
#> # ℹ 5 more variables: gender <int>, homeworld <int>, films <int>,
#> #   vehicles <int>, starships <int>
```
…
